{
  "login": {
    "code": "200",
    "message": "Utilisateur authentifié avec succès",
    "data": {
      "token": "fake-token-123"
    }
  },


  "getprofile":{
      "id": "6f24936f-11c2-4f4d-9e62-21c92e1eeb52",
      "nom": "Bamba",
      "prenoms": "Fulgence",
      "code": "m1321",
      "isUser": true,
      "email": "fulgence.bamba@example.com"
  },

  "list_demande":{
      "content": [
        {
          "id": "55ce3094-b7ef-4582-9681-179fba72d054",
          "reference": "OP-20250905154406-CF565DE1",
          "debitAmount": 6474383574,
          "creditAmount": 6474383574,
          "integrationStatus": "EN_TRAITEMENT",
          "operationStatus": "NON_VALIDEE",
          "createdAt": "2025-09-05T15:44:06.701351",
          "validatedAt": null,
          "createdBy": {
            "id": "6f24936f-11c2-4f4d-9e62-21c92e1eec52",
            "firstName": "Atse Mathurin",
            "lastName": "OLLELE",
            "matricule": "m1941",
            "orionSheet": {
              "id": 1,
              "operatorCode": "CX1",
              "service": "OM",
              "servicesManaged": [
                "CO"
              ],
              "matricule": "m1941",
              "profile": "HAB-ORGANI"
            },
            "roles": [
              {
                "role_id": 5,
                "name": "Controleur",
                "editable": false,
                "profiles": [
                  {
                    "id": 1,
                    "code": "ADJ-TRESO",
                    "libelle": "ADJOINT CHEF DEPTMT TRESORERIE"
                  }
                ]
              }
            ]
          },
          "validatedBy": null
        },  {
          "id": "55ce3094-b7ef-4582-9681-179fba72d054",
          "reference": "OP-20250905154406-CF565DE1",
          "debitAmount": 6474383574,
          "creditAmount": 6474383574,
          "integrationStatus": "EN_TRAITEMENT",
          "operationStatus": "NON_VALIDEE",
          "createdAt": "2025-09-05T15:44:06.701351",
          "validatedAt": null,
          "createdBy": {
            "id": "6f24936f-11c2-4f4d-9e62-21c92e1eec52",
            "firstName": "AUAO",
            "lastName": "FKF",
            "matricule": "m841",
            "orionSheet": {
              "id": 1,
              "operatorCode": "CX1",
              "service": "OM",
              "servicesManaged": [
                "CO"
              ],
              "matricule": "m841",
              "profile": "HAB-ORGANI"
            },
            "roles": [
              {
                "role_id": 5,
                "name": "Controleur",
                "editable": false,
                "profiles": [
                  {
                    "id": 1,
                    "code": "ADJ-TRESO",
                    "libelle": "ADJOINT CHEF DEPTMT TRESORERIE"
                  }
                ]
              }
            ]
          },
          "validatedBy": null
        },  {
          "id": "55ce3094-b7ef-4582-9681-179fba72d054",
          "reference": "OP-20250905154406-CF565DE1",
          "debitAmount": 6474383574,
          "creditAmount": 6474383574,
          "integrationStatus": "EN_TRAITEMENT",
          "operationStatus": "NON_VALIDEE",
          "createdAt": "2025-09-05T15:44:06.701351",
          "validatedAt": null,
          "createdBy": {
            "id": "6f24936f-11c2-4f4d-9e62-21c92e1eec52",
            "firstName": "AOUA",
            "lastName": "FDC",
            "matricule": "m841",
            "orionSheet": {
              "id": 1,
              "operatorCode": "CX1",
              "service": "OM",
              "servicesManaged": [
                "CO"
              ],
              "matricule": "m841",
              "profile": "HAB-ORGANI"
            },
            "roles": [
              {
                "role_id": 5,
                "name": "Controleur",
                "editable": false,
                "profiles": [
                  {
                    "id": 1,
                    "code": "ADJ-TRESO",
                    "libelle": "ADJOINT CHEF DEPTMT TRESORERIE"
                  }
                ]
              }
            ]
          },
          "validatedBy": null
        },  {
          "id": "55ce3094-b7ef-4582-9681-179fba72d054",
          "reference": "OP-20250905154406-CF565DE1",
          "debitAmount": 6474383574,
          "creditAmount": 6474383574,
          "integrationStatus": "EN_TRAITEMENT",
          "operationStatus": "NON_VALIDEE",
          "createdAt": "2025-09-05T15:44:06.701351",
          "validatedAt": null,
          "createdBy": {
            "id": "6f24936f-11c2-4f4d-9e62-21c92e1eec52",
            "firstName": "Atse Mathurin",
            "lastName": "FDC",
            "matricule": "m841",
            "orionSheet": {
              "id": 1,
              "operatorCode": "CX1",
              "service": "OM",
              "servicesManaged": [
                "CO"
              ],
              "matricule": "m1941",
              "profile": "HAB-ORGANI"
            },
            "roles": [
              {
                "role_id": 5,
                "name": "Controleur",
                "editable": false,
                "profiles": [
                  {
                    "id": 1,
                    "code": "ADJ-TRESO",
                    "libelle": "ADJOINT CHEF DEPTMT TRESORERIE"
                  }
                ]
              }
            ]
          },
          "validatedBy": null
        },  {
          "id": "55ce3094-b7ef-4582-9681-179fba72d054",
          "reference": "OP-20250905154406-CF565DE1",
          "debitAmount": 6474383574,
          "creditAmount": 6474383574,
          "integrationStatus": "EN_TRAITEMENT",
          "operationStatus": "NON_VALIDEE",
          "createdAt": "2025-09-05T15:44:06.701351",
          "validatedAt": null,
          "createdBy": {
            "id": "6f24936f-11c2-4f4d-9e62-21c92e1eec52",
            "firstName": "BILLY Sylva",
            "lastName": "OAU",
            "matricule": "m841",
            "orionSheet": {
              "id": 1,
              "operatorCode": "CX1",
              "service": "OM",
              "servicesManaged": [
                "CO"
              ],
              "matricule": "m1941",
              "profile": "HAB-ORGANI"
            },
            "roles": [
              {
                "role_id": 5,
                "name": "Controleur",
                "editable": false,
                "profiles": [
                  {
                    "id": 1,
                    "code": "ADJ-TRESO",
                    "libelle": "ADJOINT CHEF DEPTMT TRESORERIE"
                  }
                ]
              }
            ]
          },
          "validatedBy": null
        },  {
          "id": "55ce3094-b7ef-4582-9681-179fba72d054",
          "reference": "OP-20250905154406-CF565DE1",
          "debitAmount": 6474383574,
          "creditAmount": 6474383574,
          "integrationStatus": "EN_TRAITEMENT",
          "operationStatus": "NON_VALIDEE",
          "createdAt": "2025-09-05T15:44:06.701351",
          "validatedAt": null,
          "createdBy": {
            "id": "6f24936f-11c2-4f4d-9e62-21c92e1eec52",
            "firstName": "Atse Mathurin",
            "lastName": "OAU",
            "matricule": "m1941",
            "orionSheet": {
              "id": 1,
              "operatorCode": "CX1",
              "service": "OM",
              "servicesManaged": [
                "CO"
              ],
              "matricule": "m841",
              "profile": "HAB-ORGANI"
            },
            "roles": [
              {
                "role_id": 5,
                "name": "Controleur",
                "editable": false,
                "profiles": [
                  {
                    "id": 1,
                    "code": "ADJ-ESO",
                    "libelle": "ADJOINT CHEF DEPTMT TRESORERIE"
                  }
                ]
              }
            ]
          },
          "validatedBy": null
        },  {
          "id": "55ce3094-b7ef-4582-9681-179fba72d054",
          "reference": "OP-20250905154406-CF565DE1",
          "debitAmount": 6474383574,
          "creditAmount": 6474383574,
          "integrationStatus": "EN_TRAITEMENT",
          "operationStatus": "NON_VALIDEE",
          "createdAt": "2025-09-05T15:44:06.701351",
          "validatedAt": null,
          "createdBy": {
            "id": "6f24936f-11c2-4f4d-9e62-21c92e1eec52",
            "firstName": "Btse Sylva",
            "lastName": "OAU",
            "matricule": "m841",
            "orionSheet": {
              "id": 1,
              "operatorCode": "CX1",
              "service": "OM",
              "servicesManaged": [
                "CO"
              ],
              "matricule": "m841",
              "profile": "HAB-ORGANI"
            },
            "roles": [
              {
                "role_id": 5,
                "name": "Controleur",
                "editable": false,
                "profiles": [
                  {
                    "id": 1,
                    "code": "ADJ-TRESO",
                    "libelle": "ADJOINT CHEF DEPTMT TRESORERIE"
                  }
                ]
              }
            ]
          },
          "validatedBy": null
        },  {
          "id": "55ce3094-b7ef-4582-9681-179fba72d054",
          "reference": "OP-20250905154406-CF565DE1",
          "debitAmount": 6474383574,
          "creditAmount": 6474383574,
          "integrationStatus": "EN_TRAITEMENT",
          "operationStatus": "NON_VALIDEE",
          "createdAt": "2025-09-05T15:44:06.701351",
          "validatedAt": null,
          "createdBy": {
            "id": "6f24936f-11c2-4f4d-9e62-21c92e1eec52",
            "firstName": "Atse Mathurin",
            "lastName": "OAU",
            "matricule": "m841",
            "orionSheet": {
              "id": 1,
              "operatorCode": "CX1",
              "service": "OM",
              "servicesManaged": [
                "CO"
              ],
              "matricule": "m841",
              "profile": "HAB-ORGANI"
            },
            "roles": [
              {
                "role_id": 5,
                "name": "Controleur",
                "editable": false,
                "profiles": [
                  {
                    "id": 1,
                    "code": "ADJ-TRESO",
                    "libelle": "ADJOINT CHEF DEPTMT TRESORERIE"
                  }
                ]
              }
            ]
          },
          "validatedBy": null
        }
      ],

      "pageable": {
        "pageNumber": 0,
        "pageSize": 10,
        "sort": {
          "empty": false,
          "sorted": true,
          "unsorted": false
        },
        "offset": 0,
        "paged": true,
        "unpaged": false
      },
      "last": true,
      "totalPages": 4,
      "totalElements": 9,
      "size": 10,
      "number": 0,
      "sort": {
        "empty": false,
        "sorted": true,
        "unsorted": false
      },
      "numberOfElements": 9,
      "first": true,
      "empty": false
    },

    "users":{
      "totalPages": 2,
      "totalElements": 15,
      "size": 10,
      "content": [
        {
          "id": "a1b2c3d4-e5f6-7890-abcd-ef1234567890",
          "firstName": "Marie",
          "lastName": "Dupont",
          "matricule": "EMP12345",
          "orionSheet": {
            "id": 101,
            "operatorCode": "OP_MDUPONT",
            "service": "Ressources Humaines",
            "servicesManaged": ["Recrutement", "Formation"],
            "matricule": "EMP12345",
            "profile": "Manager RH"
          },
          "roles": [
            {
              "role_id": 1,
              "name": "Administrateur",
              "editable": false,
              "profiles": [
                {
                  "id": 10,
                  "code": "ADMIN",
                  "libelle": "Administrateur système"
                }
              ]
            },
            {
              "role_id": 3,
              "name": "Gestionnaire RH",
              "editable": true,
              "profiles": [
                {
                  "id": 20,
                  "code": "RH_MANAGER",
                  "libelle": "Manager Ressources Humaines"
                }
              ]
            }
          ]
        },
        {
          "id": "b2c3d4e5-f6g7-8901-bcde-f23456789012",
          "firstName": "Pierre",
          "lastName": "Martin",
          "matricule": "EMP67890",
          "orionSheet": {
            "id": 102,
            "operatorCode": "OP_PMARTIN",
            "service": "Informatique",
            "servicesManaged": ["Développement", "Support"],
            "matricule": "EMP67890",
            "profile": "Développeur Senior"
          },
          "roles": [
            {
              "role_id": 2,
              "name": "Utilisateur",
              "editable": true,
              "profiles": [
                {
                  "id": 30,
                  "code": "DEV",
                  "libelle": "Développeur"
                }
              ]
            }
          ]
        },
        {
          "id": "c3d4e5f6-g7h8-9012-cdef-345678901234",
          "firstName": "Sophie",
          "lastName": "Leroy",
          "matricule": "EMP24680",
          "orionSheet": {
            "id": 103,
            "operatorCode": "OP_SLEROY",
            "service": "Finance",
            "servicesManaged": ["Comptabilité", "Facturation"],
            "matricule": "EMP24680",
            "profile": "Comptable"
          },
          "roles": [
            {
              "role_id": 4,
              "name": "Contrôleur Financier",
              "editable": true,
              "profiles": [
                {
                  "id": 40,
                  "code": "FINANCE",
                  "libelle": "Service Finance"
                }
              ]
            }
          ]
        }
      ],
      "number": 0,
      "sort": {
        "empty": false,
        "unsorted": false,
        "sorted": true
      },
      "first": true,
      "last": false,
      "numberOfElements": 3,
      "pageable": {
        "offset": 0,
        "sort": {
          "empty": false,
          "unsorted": false,
          "sorted": true
        },
        "unpaged": false,
        "pageNumber": 0,
        "pageSize": 10,
        "paged": true
      },
      "empty": false
    }

  }

